netcdf case94pi {

// global attributes:
		:SMS++_file_type = 1 ;
		:baseMVA = 1. ;

group: Block_0 {
  dimensions:
  	NumberElectricalGenerators = 1 ;
  	NumberNodes = 94 ;
  	NumberLines = 93 ;
  	TimeHorizon = 1 ;
  	NumberUnits = 1 ;
  variables:
  	string NetworkBlockClassname ;
  	uint GeneratorNode(NumberElectricalGenerators) ;
  	double ActivePowerDemand(NumberNodes, TimeHorizon) ;
  	double NodeConductance(NumberNodes) ;
  	double NodeSusceptance(NumberNodes) ;
  	double NodeMaxVoltage(NumberNodes) ;
  	double NodeMinVoltage(NumberNodes) ;
  	uint StartLine(NumberLines) ;
  	uint EndLine(NumberLines) ;
  	double LineResistance(NumberLines) ;
  	double LineReactance(NumberLines) ;
  	double LineSusceptance(NumberLines) ;
  	double LineRATEA(NumberLines) ;
  	double LineRatio(NumberLines) ;
  	double LineShiftAngle(NumberLines) ;
  	double LineMinAngle(NumberLines) ;
  	double LineMaxAngle(NumberLines) ;
  	double MinPowerFlow(NumberLines) ;
  	double MaxPowerFlow(NumberLines) ;

  // group attributes:
  		:type = "UCBlock" ;
  		:id = "0" ;
  data:

   NetworkBlockClassname = "ACNetworkBlock" ;

   GeneratorNode = 0 ;

   ActivePowerDemand =
  0,
  0.0225,
  0.2403,
  0.0243,
  0,
  0,
  0.0288,
  0,
  0,
  0,
  0,
  0,
  0,
  0.0576,
  0,
  0,
  0.0189,
  0,
  0,
  0.0558,
  0.0405,
  0,
  0.054,
  0,
  0,
  0.0468,
  0,
  0,
  0.0135,
  0.0036,
  0.018,
  0.0216,
  0.009,
  0.0648,
  0.0657,
  0.0594,
  0.0135,
  0.1611,
  0.0261,
  0.1341,
  0.0855,
  0.0414,
  0.0414,
  0.0414,
  0.0216,
  0.0252,
  0.0459,
  0.0369,
  0.0639,
  0.0684,
  0.0279,
  0.081,
  0.0693,
  0.0621,
  0.0351,
  0.2052,
  0.0315,
  0.5211,
  0.2124,
  0.0396,
  0.045,
  0.0171,
  0.0216,
  0.0351,
  0.0702,
  0.0342,
  0.0225,
  0.0459,
  0.0333,
  0.0369,
  0.045,
  0.0756,
  0.0675,
  0.0279,
  0.0387,
  0.0531,
  0.0657,
  0.063,
  0.0675,
  0.045,
  0.009,
  0.0162,
  0.0675,
  0.2961,
  0.072,
  0.0765,
  0.0909,
  0.072,
  0.063,
  0.0216,
  0.0369,
  0.0207,
  0.0171,
  0.09 ;

   NodeConductance = 0, 0, 0, 0, 0, 0, 0, 0, 0, 0, 0, 0, 0, 0, 0, 0, 0, 0, 0, 
      0, 0, 0, 0, 0, 0, 0, 0, 0, 0, 0, 0, 0, 0, 0, 0, 0, 0, 0, 0, 0, 0, 0, 0, 
      0, 0, 0, 0, 0, 0, 0, 0, 0, 0, 0, 0, 0, 0, 0, 0, 0, 0, 0, 0, 0, 0, 0, 0, 
      0, 0, 0, 0, 0, 0, 0, 0, 0, 0, 0, 0, 0, 0, 0, 0, 0, 0, 0, 0, 0, 0, 0, 0, 
      0, 0, 0 ;

   NodeSusceptance = 0, 0, 0, 0, 0, 0, 0, 0, 0, 0, 0, 0, 0, 0, 0, 0, 0, 0, 0, 
      0, 0, 0, 0, 0, 0, 0, 0, 0, 0, 0, 0, 0, 0, 0, 0, 0, 0, 0, 0, 0, 0, 0, 0, 
      0, 0, 0, 0, 0, 0, 0, 0, 0, 0, 0, 0, 0, 0, 0, 0, 0, 0, 0, 0, 0, 0, 0, 0, 
      0, 0, 0, 0, 0, 0, 0, 0, 0, 0, 0, 0, 0, 0, 0, 0, 0, 0, 0, 0, 0, 0, 0, 0, 
      0, 0, 0 ;

   NodeMaxVoltage = 1, 1.1, 1.1, 1.1, 1.1, 1.1, 1.1, 1.1, 1.1, 1.1, 1.1, 1.1, 
      1.1, 1.1, 1.1, 1.1, 1.1, 1.1, 1.1, 1.1, 1.1, 1.1, 1.1, 1.1, 1.1, 1.1, 
      1.1, 1.1, 1.1, 1.1, 1.1, 1.1, 1.1, 1.1, 1.1, 1.1, 1.1, 1.1, 1.1, 1.1, 
      1.1, 1.1, 1.1, 1.1, 1.1, 1.1, 1.1, 1.1, 1.1, 1.1, 1.1, 1.1, 1.1, 1.1, 
      1.1, 1.1, 1.1, 1.1, 1.1, 1.1, 1.1, 1.1, 1.1, 1.1, 1.1, 1.1, 1.1, 1.1, 
      1.1, 1.1, 1.1, 1.1, 1.1, 1.1, 1.1, 1.1, 1.1, 1.1, 1.1, 1.1, 1.1, 1.1, 
      1.1, 1.1, 1.1, 1.1, 1.1, 1.1, 1.1, 1.1, 1.1, 1.1, 1.1, 1.1 ;

   NodeMinVoltage = 1, 0.9, 0.9, 0.9, 0.9, 0.9, 0.9, 0.9, 0.9, 0.9, 0.9, 0.9, 
      0.9, 0.9, 0.9, 0.9, 0.9, 0.9, 0.9, 0.9, 0.9, 0.9, 0.9, 0.9, 0.9, 0.9, 
      0.9, 0.9, 0.9, 0.9, 0.9, 0.9, 0.9, 0.9, 0.9, 0.9, 0.9, 0.9, 0.9, 0.9, 
      0.9, 0.9, 0.9, 0.9, 0.9, 0.9, 0.9, 0.9, 0.9, 0.9, 0.9, 0.9, 0.9, 0.9, 
      0.9, 0.9, 0.9, 0.9, 0.9, 0.9, 0.9, 0.9, 0.9, 0.9, 0.9, 0.9, 0.9, 0.9, 
      0.9, 0.9, 0.9, 0.9, 0.9, 0.9, 0.9, 0.9, 0.9, 0.9, 0.9, 0.9, 0.9, 0.9, 
      0.9, 0.9, 0.9, 0.9, 0.9, 0.9, 0.9, 0.9, 0.9, 0.9, 0.9, 0.9 ;

   StartLine = 0, 1, 2, 3, 4, 5, 6, 7, 8, 9, 10, 11, 12, 13, 14, 15, 16, 17, 
      18, 19, 20, 21, 22, 23, 24, 25, 26, 27, 28, 29, 30, 31, 4, 4, 34, 35, 
      5, 5, 38, 39, 40, 7, 42, 43, 8, 9, 46, 47, 48, 49, 9, 51, 52, 53, 54, 
      55, 56, 57, 58, 59, 60, 61, 62, 63, 64, 10, 66, 11, 12, 69, 14, 71, 15, 
      17, 18, 18, 76, 77, 78, 79, 80, 19, 82, 83, 84, 21, 23, 24, 24, 89, 90, 
      26, 27 ;

   EndLine = 1, 2, 3, 4, 5, 6, 7, 8, 9, 10, 11, 12, 13, 14, 15, 16, 17, 18, 
      19, 20, 21, 22, 23, 24, 25, 26, 27, 28, 29, 30, 31, 32, 33, 34, 35, 36, 
      37, 38, 39, 40, 41, 42, 43, 44, 45, 46, 47, 48, 49, 50, 51, 52, 53, 54, 
      55, 56, 57, 58, 59, 60, 61, 62, 63, 64, 65, 66, 67, 68, 69, 70, 71, 72, 
      73, 74, 75, 76, 77, 78, 79, 80, 81, 82, 83, 84, 85, 86, 87, 88, 89, 90, 
      91, 92, 93 ;

   LineResistance = 0.112, 0.0763, 0.1891, 0.2243, 0.2571, 0.134, 0.2986, 
      0.1953, 0.5097, 1.5303, 0.1889, 0.1816, 0.0661, 0.4115, 0.2584, 0.2033, 
      0.7243, 0.2162, 0.35, 1.4775, 0.45, 0.771, 0.885, 0.9915, 0.384, 
      0.7245, 1.185, 1.2353, 0.3557, 0.9494, 0.6899, 1.5707, 1.2655, 0.1688, 
      0.2741, 0.2552, 0.4165, 1.4835, 1.8, 0.5177, 0.7148, 1.0575, 0.5198, 
      0.3341, 0.349, 0.5771, 0.3598, 0.7688, 0.2599, 0.8654, 0.5248, 0.1737, 
      0.6148, 0.198, 0.198, 0.285, 0.1429, 0.3409, 0.3679, 0.3591, 0.3503, 
      0.4219, 1.538, 0.9788, 1.4911, 0.969, 0.6705, 0.4354, 0.4631, 0.2707, 
      0.6683, 0.8525, 0.3314, 0.405, 0.4367, 0.3416, 0.2113, 1.1249, 1.1738, 
      0.619, 0.5684, 0.8393, 0.2133, 0.3645, 0.3206, 0.7675, 1.5914, 0.702, 
      20.743, 0.678, 0.5738, 0.5913, 1.1865 ;

   LineReactance = 0.1873, 0.1274, 0.3161, 0.3749, 0.4297, 0.2239, 0.4991, 
      0.3265, 0.8519, 1.5101, 0.1864, 0.1793, 0.0653, 0.4061, 0.255, 0.2006, 
      0.7148, 0.2134, 0.3454, 0.3891, 0.1185, 0.203, 0.2331, 0.2611, 0.1011, 
      0.1908, 0.3121, 0.6899, 0.1987, 0.3406, 0.3853, 0.8773, 0.454, 0.0943, 
      0.1531, 0.1425, 0.2326, 0.3907, 0.474, 0.2892, 0.3992, 0.2785, 0.2903, 
      0.1866, 0.1949, 0.3223, 0.2009, 0.4294, 0.1451, 0.4833, 0.5179, 0.1714, 
      0.6068, 0.1954, 0.1954, 0.2813, 0.141, 0.1904, 0.2055, 0.2006, 0.1957, 
      0.2356, 0.5517, 0.3511, 0.5349, 0.2552, 0.1766, 0.2432, 0.2586, 0.1512, 
      0.3732, 0.4762, 0.1851, 0.2262, 0.2439, 0.1908, 0.118, 0.4035, 0.6556, 
      0.3457, 0.3174, 0.3011, 0.1191, 0.2036, 0.1791, 0.4286, 0.5709, 0.3921, 
      0.7441, 0.2432, 0.3205, 0.3303, 0.3124 ;

   LineSusceptance = 0, 0, 0, 0, 0, 0, 0, 0, 0, 0, 0, 0, 0, 0, 0, 0, 0, 0, 0, 
      0, 0, 0, 0, 0, 0, 0, 0, 0, 0, 0, 0, 0, 0, 0, 0, 0, 0, 0, 0, 0, 0, 0, 0, 
      0, 0, 0, 0, 0, 0, 0, 0, 0, 0, 0, 0, 0, 0, 0, 0, 0, 0, 0, 0, 0, 0, 0, 0, 
      0, 0, 0, 0, 0, 0, 0, 0, 0, 0, 0, 0, 0, 0, 0, 0, 0, 0, 0, 0, 0, 0, 0, 0, 
      0, 0 ;

   LineRATEA = 0, 0, 0, 0, 0, 0, 0, 0, 0, 0, 0, 0, 0, 0, 0, 0, 0, 0, 0, 0, 0, 
      0, 0, 0, 0, 0, 0, 0, 0, 0, 0, 0, 0, 0, 0, 0, 0, 0, 0, 0, 0, 0, 0, 0, 0, 
      0, 0, 0, 0, 0, 0, 0, 0, 0, 0, 0, 0, 0, 0, 0, 0, 0, 0, 0, 0, 0, 0, 0, 0, 
      0, 0, 0, 0, 0, 0, 0, 0, 0, 0, 0, 0, 0, 0, 0, 0, 0, 0, 0, 0, 0, 0, 0, 0 ;

   LineRatio = 0, 0, 0, 0, 0, 0, 0, 0, 0, 0, 0, 0, 0, 0, 0, 0, 0, 0, 0, 0, 0, 
      0, 0, 0, 0, 0, 0, 0, 0, 0, 0, 0, 0, 0, 0, 0, 0, 0, 0, 0, 0, 0, 0, 0, 0, 
      0, 0, 0, 0, 0, 0, 0, 0, 0, 0, 0, 0, 0, 0, 0, 0, 0, 0, 0, 0, 0, 0, 0, 0, 
      0, 0, 0, 0, 0, 0, 0, 0, 0, 0, 0, 0, 0, 0, 0, 0, 0, 0, 0, 0, 0, 0, 0, 0 ;

   LineShiftAngle = 0, 0, 0, 0, 0, 0, 0, 0, 0, 0, 0, 0, 0, 0, 0, 0, 0, 0, 0, 
      0, 0, 0, 0, 0, 0, 0, 0, 0, 0, 0, 0, 0, 0, 0, 0, 0, 0, 0, 0, 0, 0, 0, 0, 
      0, 0, 0, 0, 0, 0, 0, 0, 0, 0, 0, 0, 0, 0, 0, 0, 0, 0, 0, 0, 0, 0, 0, 0, 
      0, 0, 0, 0, 0, 0, 0, 0, 0, 0, 0, 0, 0, 0, 0, 0, 0, 0, 0, 0, 0, 0, 0, 0, 
      0, 0 ;

   LineMinAngle = -360, -360, -360, -360, -360, -360, -360, -360, -360, -360, 
      -360, -360, -360, -360, -360, -360, -360, -360, -360, -360, -360, -360, 
      -360, -360, -360, -360, -360, -360, -360, -360, -360, -360, -360, -360, 
      -360, -360, -360, -360, -360, -360, -360, -360, -360, -360, -360, -360, 
      -360, -360, -360, -360, -360, -360, -360, -360, -360, -360, -360, -360, 
      -360, -360, -360, -360, -360, -360, -360, -360, -360, -360, -360, -360, 
      -360, -360, -360, -360, -360, -360, -360, -360, -360, -360, -360, -360, 
      -360, -360, -360, -360, -360, -360, -360, -360, -360, -360, -360 ;

   LineMaxAngle = 360, 360, 360, 360, 360, 360, 360, 360, 360, 360, 360, 360, 
      360, 360, 360, 360, 360, 360, 360, 360, 360, 360, 360, 360, 360, 360, 
      360, 360, 360, 360, 360, 360, 360, 360, 360, 360, 360, 360, 360, 360, 
      360, 360, 360, 360, 360, 360, 360, 360, 360, 360, 360, 360, 360, 360, 
      360, 360, 360, 360, 360, 360, 360, 360, 360, 360, 360, 360, 360, 360, 
      360, 360, 360, 360, 360, 360, 360, 360, 360, 360, 360, 360, 360, 360, 
      360, 360, 360, 360, 360, 360, 360, 360, 360, 360, 360 ;

   MinPowerFlow = -10000, -10000, -10000, -10000, -10000, -10000, -10000, 
      -10000, -10000, -10000, -10000, -10000, -10000, -10000, -10000, -10000, 
      -10000, -10000, -10000, -10000, -10000, -10000, -10000, -10000, -10000, 
      -10000, -10000, -10000, -10000, -10000, -10000, -10000, -10000, -10000, 
      -10000, -10000, -10000, -10000, -10000, -10000, -10000, -10000, -10000, 
      -10000, -10000, -10000, -10000, -10000, -10000, -10000, -10000, -10000, 
      -10000, -10000, -10000, -10000, -10000, -10000, -10000, -10000, -10000, 
      -10000, -10000, -10000, -10000, -10000, -10000, -10000, -10000, -10000, 
      -10000, -10000, -10000, -10000, -10000, -10000, -10000, -10000, -10000, 
      -10000, -10000, -10000, -10000, -10000, -10000, -10000, -10000, -10000, 
      -10000, -10000, -10000, -10000, -10000 ;

   MaxPowerFlow = 10000, 10000, 10000, 10000, 10000, 10000, 10000, 10000, 
      10000, 10000, 10000, 10000, 10000, 10000, 10000, 10000, 10000, 10000, 
      10000, 10000, 10000, 10000, 10000, 10000, 10000, 10000, 10000, 10000, 
      10000, 10000, 10000, 10000, 10000, 10000, 10000, 10000, 10000, 10000, 
      10000, 10000, 10000, 10000, 10000, 10000, 10000, 10000, 10000, 10000, 
      10000, 10000, 10000, 10000, 10000, 10000, 10000, 10000, 10000, 10000, 
      10000, 10000, 10000, 10000, 10000, 10000, 10000, 10000, 10000, 10000, 
      10000, 10000, 10000, 10000, 10000, 10000, 10000, 10000, 10000, 10000, 
      10000, 10000, 10000, 10000, 10000, 10000, 10000, 10000, 10000, 10000, 
      10000, 10000, 10000, 10000, 10000 ;

  group: UnitBlock_0 {
    dimensions:
    	NumberCostCoeffs = 3 ;
    	NumberReactiveCostCoeffs = 3 ;
    variables:
    	double InitialPower ;
    	double InitialReactivePower ;
    	double MaxReactivePower(TimeHorizon) ;
    	double MinReactivePower(TimeHorizon) ;
    	double VoltageMagnitude(TimeHorizon) ;
    	double MaxPower(TimeHorizon) ;
    	double MinPower(TimeHorizon) ;
    	uint CostModel ;
    	uint ReactiveCostModel ;
    	double StartupCost ;
    	double ReactiveStartupCost ;
    	double PowerCostCoeffs(NumberCostCoeffs) ;
    	double ReactivePowerCostCoeffs(NumberReactiveCostCoeffs) ;
    	double LinearTerm ;
    	double MinUpTime ;
    	double MinDownTime ;
    	double InitUpDownTime ;
    	double InertiaCommitment ;

    // group attributes:
    		:type = "ThermalUnitBlock" ;
    data:

     InitialPower = 0 ;

     InitialReactivePower = 0 ;

     MaxReactivePower = 10 ;

     MinReactivePower = -10 ;

     VoltageMagnitude = 1 ;

     MaxPower = 10 ;

     MinPower = 0 ;

     CostModel = 1 ;

     ReactiveCostModel = 1 ;

     StartupCost = 0 ;

     ReactiveStartupCost = 0 ;

     PowerCostCoeffs = 0, 20, 0 ;

     ReactivePowerCostCoeffs = 0, 20, 0 ;

     LinearTerm = 1 ;

     MinUpTime = 1 ;

     MinDownTime = 1 ;

     InitUpDownTime = 1 ;

     InertiaCommitment = 1 ;
    } // group UnitBlock_0
  } // group Block_0
}
