netcdf case118zh {

// global attributes:
		:SMS++_file_type = 1 ;
		:baseMVA = 10. ;

group: Block_0 {
  dimensions:
  	NumberElectricalGenerators = 1 ;
  	NumberNodes = 118 ;
  	NumberLines = 132 ;
  	TimeHorizon = 1 ;
  	NumberUnits = 1 ;
  variables:
  	string NetworkBlockClassname ;
  	uint GeneratorNode(NumberElectricalGenerators) ;
  	double ActivePowerDemand(NumberNodes, TimeHorizon) ;
  	double NodeConductance(NumberNodes) ;
  	double NodeSusceptance(NumberNodes) ;
  	double NodeMaxVoltage(NumberNodes) ;
  	double NodeMinVoltage(NumberNodes) ;
  	uint StartLine(NumberLines) ;
  	uint EndLine(NumberLines) ;
  	double LineResistance(NumberLines) ;
  	double LineReactance(NumberLines) ;
  	double LineSusceptance(NumberLines) ;
  	double LineRATEA(NumberLines) ;
  	double LineRatio(NumberLines) ;
  	double LineShiftAngle(NumberLines) ;
  	double LineMinAngle(NumberLines) ;
  	double LineMaxAngle(NumberLines) ;
  	double MinPowerFlow(NumberLines) ;
  	double MaxPowerFlow(NumberLines) ;

  // group attributes:
  		:type = "UCBlock" ;
  		:id = "0" ;
  data:

   NetworkBlockClassname = "ACNetworkBlock" ;

   GeneratorNode = 0 ;

   ActivePowerDemand =
  0,
  0.13384,
  0.016214,
  0.034315,
  0.073016,
  0.1442,
  0.10447,
  0.028547,
  0.08756,
  0.1982,
  0.1468,
  0.02604,
  0.0521,
  0.1419,
  0.02187,
  0.03337,
  0.03243,
  0.020234,
  0.15694,
  0.54629,
  0.18031,
  0.093167,
  0.08518,
  0.1681,
  0.12511,
  0.01603,
  0.02603,
  0.59456,
  0.12062,
  0.10238,
  0.5134,
  0.47525,
  0.15143,
  0.20538,
  0.1316,
  0.4484,
  0.44052,
  0.11254,
  0.053963,
  0.39305,
  0.32674,
  0.53626,
  0.076247,
  0.05352,
  0.040328,
  0.039653,
  0.066195,
  0.073904,
  0.11477,
  0.91837,
  0.2103,
  0.06668,
  0.042207,
  0.43374,
  0.0621,
  0.09246,
  0.085188,
  0.3453,
  0.0225,
  0.080551,
  0.09586,
  0.06292,
  0.4788,
  0.12094,
  0.13911,
  0.39178,
  0.027741,
  0.052814,
  0.06689,
  0.4675,
  0.59485,
  0.1325,
  0.052699,
  0.86979,
  0.031349,
  0.19239,
  0.06575,
  0.23815,
  0.29455,
  0.48557,
  0.24353,
  0.24353,
  0.13425,
  0.02271,
  0.049513,
  0.38378,
  0.04964,
  0.022473,
  0.06293,
  0.03067,
  0.06253,
  0.11457,
  0.081292,
  0.031733,
  0.03332,
  0.53128,
  0.50703,
  0.02639,
  0.04599,
  0.10066,
  0.45648,
  0.52256,
  0.40843,
  0.14148,
  0.10443,
  0.096793,
  0.49392,
  0.22538,
  0.50921,
  0.1885,
  0.91803,
  0.30508,
  0.05438,
  0.21114,
  0.067009,
  0.16207,
  0.048785,
  0.0339 ;

   NodeConductance = 0, 0, 0, 0, 0, 0, 0, 0, 0, 0, 0, 0, 0, 0, 0, 0, 0, 0, 0, 
      0, 0, 0, 0, 0, 0, 0, 0, 0, 0, 0, 0, 0, 0, 0, 0, 0, 0, 0, 0, 0, 0, 0, 0, 
      0, 0, 0, 0, 0, 0, 0, 0, 0, 0, 0, 0, 0, 0, 0, 0, 0, 0, 0, 0, 0, 0, 0, 0, 
      0, 0, 0, 0, 0, 0, 0, 0, 0, 0, 0, 0, 0, 0, 0, 0, 0, 0, 0, 0, 0, 0, 0, 0, 
      0, 0, 0, 0, 0, 0, 0, 0, 0, 0, 0, 0, 0, 0, 0, 0, 0, 0, 0, 0, 0, 0, 0, 0, 
      0, 0, 0 ;

   NodeSusceptance = 0, 0, 0, 0, 0, 0, 0, 0, 0, 0, 0, 0, 0, 0, 0, 0, 0, 0, 0, 
      0, 0, 0, 0, 0, 0, 0, 0, 0, 0, 0, 0, 0, 0, 0, 0, 0, 0, 0, 0, 0, 0, 0, 0, 
      0, 0, 0, 0, 0, 0, 0, 0, 0, 0, 0, 0, 0, 0, 0, 0, 0, 0, 0, 0, 0, 0, 0, 0, 
      0, 0, 0, 0, 0, 0, 0, 0, 0, 0, 0, 0, 0, 0, 0, 0, 0, 0, 0, 0, 0, 0, 0, 0, 
      0, 0, 0, 0, 0, 0, 0, 0, 0, 0, 0, 0, 0, 0, 0, 0, 0, 0, 0, 0, 0, 0, 0, 0, 
      0, 0, 0 ;

   NodeMaxVoltage = 1, 1.1, 1.1, 1.1, 1.1, 1.1, 1.1, 1.1, 1.1, 1.1, 1.1, 1.1, 
      1.1, 1.1, 1.1, 1.1, 1.1, 1.1, 1.1, 1.1, 1.1, 1.1, 1.1, 1.1, 1.1, 1.1, 
      1.1, 1.1, 1.1, 1.1, 1.1, 1.1, 1.1, 1.1, 1.1, 1.1, 1.1, 1.1, 1.1, 1.1, 
      1.1, 1.1, 1.1, 1.1, 1.1, 1.1, 1.1, 1.1, 1.1, 1.1, 1.1, 1.1, 1.1, 1.1, 
      1.1, 1.1, 1.1, 1.1, 1.1, 1.1, 1.1, 1.1, 1.1, 1.1, 1.1, 1.1, 1.1, 1.1, 
      1.1, 1.1, 1.1, 1.1, 1.1, 1.1, 1.1, 1.1, 1.1, 1.1, 1.1, 1.1, 1.1, 1.1, 
      1.1, 1.1, 1.1, 1.1, 1.1, 1.1, 1.1, 1.1, 1.1, 1.1, 1.1, 1.1, 1.1, 1.1, 
      1.1, 1.1, 1.1, 1.1, 1.1, 1.1, 1.1, 1.1, 1.1, 1.1, 1.1, 1.1, 1.1, 1.1, 
      1.1, 1.1, 1.1, 1.1, 1.1, 1.1, 1.1, 1.1 ;

   NodeMinVoltage = 1, 0.9, 0.9, 0.9, 0.9, 0.9, 0.9, 0.9, 0.9, 0.9, 0.9, 0.9, 
      0.9, 0.9, 0.9, 0.9, 0.9, 0.9, 0.9, 0.9, 0.9, 0.9, 0.9, 0.9, 0.9, 0.9, 
      0.9, 0.9, 0.9, 0.9, 0.9, 0.9, 0.9, 0.9, 0.9, 0.9, 0.9, 0.9, 0.9, 0.9, 
      0.9, 0.9, 0.9, 0.9, 0.9, 0.9, 0.9, 0.9, 0.9, 0.9, 0.9, 0.9, 0.9, 0.9, 
      0.9, 0.9, 0.9, 0.9, 0.9, 0.9, 0.9, 0.9, 0.9, 0.9, 0.9, 0.9, 0.9, 0.9, 
      0.9, 0.9, 0.9, 0.9, 0.9, 0.9, 0.9, 0.9, 0.9, 0.9, 0.9, 0.9, 0.9, 0.9, 
      0.9, 0.9, 0.9, 0.9, 0.9, 0.9, 0.9, 0.9, 0.9, 0.9, 0.9, 0.9, 0.9, 0.9, 
      0.9, 0.9, 0.9, 0.9, 0.9, 0.9, 0.9, 0.9, 0.9, 0.9, 0.9, 0.9, 0.9, 0.9, 
      0.9, 0.9, 0.9, 0.9, 0.9, 0.9, 0.9, 0.9 ;

   StartLine = 0, 1, 1, 3, 4, 5, 6, 7, 1, 9, 10, 11, 12, 13, 14, 15, 10, 17, 
      18, 19, 20, 21, 22, 23, 24, 25, 3, 27, 28, 29, 30, 31, 32, 33, 29, 35, 
      28, 37, 38, 39, 40, 41, 42, 43, 44, 34, 46, 47, 48, 49, 50, 51, 52, 28, 
      54, 55, 56, 57, 58, 59, 60, 0, 62, 63, 64, 65, 66, 67, 68, 69, 70, 71, 
      72, 73, 74, 75, 63, 77, 78, 79, 80, 81, 82, 83, 78, 85, 86, 64, 88, 89, 
      90, 91, 92, 93, 90, 95, 96, 97, 0, 99, 100, 101, 102, 103, 104, 105, 
      106, 107, 108, 109, 109, 111, 99, 113, 114, 115, 116, 45, 16, 7, 53, 
      61, 36, 8, 57, 72, 87, 98, 107, 104, 109, 24 ;

   EndLine = 1, 2, 3, 4, 5, 6, 7, 8, 9, 10, 11, 12, 13, 14, 15, 16, 17, 18, 
      19, 20, 21, 22, 23, 24, 25, 26, 27, 28, 29, 30, 31, 32, 33, 34, 35, 36, 
      37, 38, 39, 40, 41, 42, 43, 44, 45, 46, 47, 48, 49, 50, 51, 52, 53, 54, 
      55, 56, 57, 58, 59, 60, 61, 62, 63, 64, 65, 66, 67, 68, 69, 70, 71, 72, 
      73, 74, 75, 76, 77, 78, 79, 80, 81, 82, 83, 84, 85, 86, 87, 88, 89, 90, 
      91, 92, 93, 94, 95, 96, 97, 98, 99, 100, 101, 102, 103, 104, 105, 106, 
      107, 108, 109, 110, 111, 112, 113, 114, 115, 116, 117, 26, 26, 23, 42, 
      48, 61, 39, 95, 90, 74, 76, 82, 85, 117, 34 ;

   LineResistance = 0.036, 0.033, 0.045, 0.015, 0.015, 0.015, 0.018, 0.021, 
      0.166, 0.112, 0.187, 0.142, 0.18, 0.15, 0.16, 0.157, 0.218, 0.118, 
      0.16, 0.12, 0.12, 1.41, 0.293, 0.133, 0.178, 0.178, 0.015, 0.012, 0.12, 
      0.21, 0.12, 0.178, 0.178, 0.154, 0.187, 0.133, 0.33, 0.31, 0.13, 0.28, 
      1.18, 0.42, 0.27, 0.339, 0.27, 0.21, 0.12, 0.15, 0.15, 0.24, 0.12, 
      0.405, 0.405, 0.391, 0.406, 0.406, 0.706, 0.338, 0.338, 0.207, 0.247, 
      0.028, 0.117, 0.255, 0.21, 0.383, 0.504, 0.406, 0.962, 0.165, 0.303, 
      0.303, 0.206, 0.233, 0.591, 0.126, 0.559, 0.186, 0.186, 0.26, 0.154, 
      0.23, 0.252, 0.18, 0.16, 0.2, 0.16, 0.669, 0.266, 0.266, 0.266, 0.266, 
      0.233, 0.496, 0.196, 0.196, 0.1866, 0.0746, 0.0625, 0.1501, 0.1347, 
      0.2307, 0.447, 0.1632, 0.33, 0.156, 0.3819, 0.1626, 0.3819, 0.2445, 
      0.2088, 0.2301, 0.6102, 0.1866, 0.3732, 0.405, 0.489, 0.5258, 0.5258, 
      0.4272, 0.48, 0.36, 0.57, 0.53, 0.3957, 0.68, 0.4062, 0.4626, 0.651, 
      0.8125, 0.7089, 0.5 ;

   LineReactance = 0.01296, 0.01188, 0.0162, 0.054, 0.054, 0.0125, 0.014, 
      0.063, 0.1344, 0.0789, 0.313, 0.1512, 0.118, 0.045, 0.18, 0.171, 0.285, 
      0.185, 0.196, 0.189, 0.0789, 0.723, 0.1348, 0.104, 0.134, 0.134, 
      0.0296, 0.0276, 0.2766, 0.243, 0.054, 0.234, 0.234, 0.162, 0.261, 
      0.099, 0.194, 0.194, 0.194, 0.15, 0.85, 0.2436, 0.0972, 0.1221, 0.1779, 
      0.1383, 0.0789, 0.0987, 0.0987, 0.1581, 0.0789, 0.1458, 0.1458, 0.141, 
      0.1461, 0.1461, 0.5461, 0.1218, 0.1218, 0.0747, 0.8922, 0.0418, 0.2016, 
      0.0918, 0.0759, 0.138, 0.3303, 0.1461, 0.761, 0.06, 0.1092, 0.1092, 
      0.144, 0.084, 0.1773, 0.0453, 0.3687, 0.1227, 0.1227, 0.139, 0.148, 
      0.128, 0.106, 0.148, 0.182, 0.23, 0.393, 0.2412, 0.1227, 0.1227, 
      0.1227, 0.1227, 0.115, 0.138, 0.18, 0.18, 0.122, 0.318, 0.0265, 0.234, 
      0.0888, 0.1203, 0.1608, 0.0588, 0.099, 0.0561, 0.1374, 0.0585, 0.1374, 
      0.0879, 0.0753, 0.0828, 0.2196, 0.127, 0.246, 0.367, 0.438, 0.2925, 
      0.2916, 0.1539, 0.1728, 0.1296, 0.572, 0.3348, 0.1425, 0.648, 0.1464, 
      0.1674, 0.234, 0.2925, 0.2553, 0.5 ;

   LineSusceptance = 0, 0, 0, 0, 0, 0, 0, 0, 0, 0, 0, 0, 0, 0, 0, 0, 0, 0, 0, 
      0, 0, 0, 0, 0, 0, 0, 0, 0, 0, 0, 0, 0, 0, 0, 0, 0, 0, 0, 0, 0, 0, 0, 0, 
      0, 0, 0, 0, 0, 0, 0, 0, 0, 0, 0, 0, 0, 0, 0, 0, 0, 0, 0, 0, 0, 0, 0, 0, 
      0, 0, 0, 0, 0, 0, 0, 0, 0, 0, 0, 0, 0, 0, 0, 0, 0, 0, 0, 0, 0, 0, 0, 0, 
      0, 0, 0, 0, 0, 0, 0, 0, 0, 0, 0, 0, 0, 0, 0, 0, 0, 0, 0, 0, 0, 0, 0, 0, 
      0, 0, 0, 0, 0, 0, 0, 0, 0, 0, 0, 0, 0, 0, 0, 0, 0 ;

   LineRATEA = 0, 0, 0, 0, 0, 0, 0, 0, 0, 0, 0, 0, 0, 0, 0, 0, 0, 0, 0, 0, 0, 
      0, 0, 0, 0, 0, 0, 0, 0, 0, 0, 0, 0, 0, 0, 0, 0, 0, 0, 0, 0, 0, 0, 0, 0, 
      0, 0, 0, 0, 0, 0, 0, 0, 0, 0, 0, 0, 0, 0, 0, 0, 0, 0, 0, 0, 0, 0, 0, 0, 
      0, 0, 0, 0, 0, 0, 0, 0, 0, 0, 0, 0, 0, 0, 0, 0, 0, 0, 0, 0, 0, 0, 0, 0, 
      0, 0, 0, 0, 0, 0, 0, 0, 0, 0, 0, 0, 0, 0, 0, 0, 0, 0, 0, 0, 0, 0, 0, 0, 
      0, 0, 0, 0, 0, 0, 0, 0, 0, 0, 0, 0, 0, 0, 0 ;

   LineRatio = 0, 0, 0, 0, 0, 0, 0, 0, 0, 0, 0, 0, 0, 0, 0, 0, 0, 0, 0, 0, 0, 
      0, 0, 0, 0, 0, 0, 0, 0, 0, 0, 0, 0, 0, 0, 0, 0, 0, 0, 0, 0, 0, 0, 0, 0, 
      0, 0, 0, 0, 0, 0, 0, 0, 0, 0, 0, 0, 0, 0, 0, 0, 0, 0, 0, 0, 0, 0, 0, 0, 
      0, 0, 0, 0, 0, 0, 0, 0, 0, 0, 0, 0, 0, 0, 0, 0, 0, 0, 0, 0, 0, 0, 0, 0, 
      0, 0, 0, 0, 0, 0, 0, 0, 0, 0, 0, 0, 0, 0, 0, 0, 0, 0, 0, 0, 0, 0, 0, 0, 
      0, 0, 0, 0, 0, 0, 0, 0, 0, 0, 0, 0, 0, 0, 0 ;

   LineShiftAngle = 0, 0, 0, 0, 0, 0, 0, 0, 0, 0, 0, 0, 0, 0, 0, 0, 0, 0, 0, 
      0, 0, 0, 0, 0, 0, 0, 0, 0, 0, 0, 0, 0, 0, 0, 0, 0, 0, 0, 0, 0, 0, 0, 0, 
      0, 0, 0, 0, 0, 0, 0, 0, 0, 0, 0, 0, 0, 0, 0, 0, 0, 0, 0, 0, 0, 0, 0, 0, 
      0, 0, 0, 0, 0, 0, 0, 0, 0, 0, 0, 0, 0, 0, 0, 0, 0, 0, 0, 0, 0, 0, 0, 0, 
      0, 0, 0, 0, 0, 0, 0, 0, 0, 0, 0, 0, 0, 0, 0, 0, 0, 0, 0, 0, 0, 0, 0, 0, 
      0, 0, 0, 0, 0, 0, 0, 0, 0, 0, 0, 0, 0, 0, 0, 0, 0 ;

   LineMinAngle = -360, -360, -360, -360, -360, -360, -360, -360, -360, -360, 
      -360, -360, -360, -360, -360, -360, -360, -360, -360, -360, -360, -360, 
      -360, -360, -360, -360, -360, -360, -360, -360, -360, -360, -360, -360, 
      -360, -360, -360, -360, -360, -360, -360, -360, -360, -360, -360, -360, 
      -360, -360, -360, -360, -360, -360, -360, -360, -360, -360, -360, -360, 
      -360, -360, -360, -360, -360, -360, -360, -360, -360, -360, -360, -360, 
      -360, -360, -360, -360, -360, -360, -360, -360, -360, -360, -360, -360, 
      -360, -360, -360, -360, -360, -360, -360, -360, -360, -360, -360, -360, 
      -360, -360, -360, -360, -360, -360, -360, -360, -360, -360, -360, -360, 
      -360, -360, -360, -360, -360, -360, -360, -360, -360, -360, -360, -360, 
      -360, -360, -360, -360, -360, -360, -360, -360, -360, -360, -360, -360, 
      -360, -360 ;

   LineMaxAngle = 360, 360, 360, 360, 360, 360, 360, 360, 360, 360, 360, 360, 
      360, 360, 360, 360, 360, 360, 360, 360, 360, 360, 360, 360, 360, 360, 
      360, 360, 360, 360, 360, 360, 360, 360, 360, 360, 360, 360, 360, 360, 
      360, 360, 360, 360, 360, 360, 360, 360, 360, 360, 360, 360, 360, 360, 
      360, 360, 360, 360, 360, 360, 360, 360, 360, 360, 360, 360, 360, 360, 
      360, 360, 360, 360, 360, 360, 360, 360, 360, 360, 360, 360, 360, 360, 
      360, 360, 360, 360, 360, 360, 360, 360, 360, 360, 360, 360, 360, 360, 
      360, 360, 360, 360, 360, 360, 360, 360, 360, 360, 360, 360, 360, 360, 
      360, 360, 360, 360, 360, 360, 360, 360, 360, 360, 360, 360, 360, 360, 
      360, 360, 360, 360, 360, 360, 360, 360 ;

   MinPowerFlow = -10000, -10000, -10000, -10000, -10000, -10000, -10000, 
      -10000, -10000, -10000, -10000, -10000, -10000, -10000, -10000, -10000, 
      -10000, -10000, -10000, -10000, -10000, -10000, -10000, -10000, -10000, 
      -10000, -10000, -10000, -10000, -10000, -10000, -10000, -10000, -10000, 
      -10000, -10000, -10000, -10000, -10000, -10000, -10000, -10000, -10000, 
      -10000, -10000, -10000, -10000, -10000, -10000, -10000, -10000, -10000, 
      -10000, -10000, -10000, -10000, -10000, -10000, -10000, -10000, -10000, 
      -10000, -10000, -10000, -10000, -10000, -10000, -10000, -10000, -10000, 
      -10000, -10000, -10000, -10000, -10000, -10000, -10000, -10000, -10000, 
      -10000, -10000, -10000, -10000, -10000, -10000, -10000, -10000, -10000, 
      -10000, -10000, -10000, -10000, -10000, -10000, -10000, -10000, -10000, 
      -10000, -10000, -10000, -10000, -10000, -10000, -10000, -10000, -10000, 
      -10000, -10000, -10000, -10000, -10000, -10000, -10000, -10000, -10000, 
      -10000, -10000, -10000, -10000, -10000, -10000, -10000, -10000, -10000, 
      -10000, -10000, -10000, -10000, -10000, -10000, -10000, -10000 ;

   MaxPowerFlow = 10000, 10000, 10000, 10000, 10000, 10000, 10000, 10000, 
      10000, 10000, 10000, 10000, 10000, 10000, 10000, 10000, 10000, 10000, 
      10000, 10000, 10000, 10000, 10000, 10000, 10000, 10000, 10000, 10000, 
      10000, 10000, 10000, 10000, 10000, 10000, 10000, 10000, 10000, 10000, 
      10000, 10000, 10000, 10000, 10000, 10000, 10000, 10000, 10000, 10000, 
      10000, 10000, 10000, 10000, 10000, 10000, 10000, 10000, 10000, 10000, 
      10000, 10000, 10000, 10000, 10000, 10000, 10000, 10000, 10000, 10000, 
      10000, 10000, 10000, 10000, 10000, 10000, 10000, 10000, 10000, 10000, 
      10000, 10000, 10000, 10000, 10000, 10000, 10000, 10000, 10000, 10000, 
      10000, 10000, 10000, 10000, 10000, 10000, 10000, 10000, 10000, 10000, 
      10000, 10000, 10000, 10000, 10000, 10000, 10000, 10000, 10000, 10000, 
      10000, 10000, 10000, 10000, 10000, 10000, 10000, 10000, 10000, 10000, 
      10000, 10000, 10000, 10000, 10000, 10000, 10000, 10000, 10000, 10000, 
      10000, 10000, 10000, 10000 ;

  group: UnitBlock_0 {
    dimensions:
    	NumberCostCoeffs = 3 ;
    variables:
    	double InitialPower ;
    	double InitialReactivePower ;
    	double MaxReactivePower(TimeHorizon) ;
    	double MinReactivePower(TimeHorizon) ;
    	double VoltageMagnitude(TimeHorizon) ;
    	double MaxPower(TimeHorizon) ;
    	double MinPower(TimeHorizon) ;
    	uint CostModel ;
    	double StartupCost ;
    	double PowerCostCoeffs(NumberCostCoeffs) ;
    	double LinearTerm ;
    	double MinUpTime ;
    	double MinDownTime ;
    	double InitUpDownTime ;
    	double InertiaCommitment ;

    // group attributes:
    		:type = "ThermalUnitBlock" ;
    data:

     InitialPower = 0 ;

     InitialReactivePower = 0 ;

     MaxReactivePower = 10 ;

     MinReactivePower = -10 ;

     VoltageMagnitude = 1 ;

     MaxPower = 10 ;

     MinPower = 0 ;

     CostModel = 1 ;

     StartupCost = 0 ;

     PowerCostCoeffs = 0, 20, 0 ;

     LinearTerm = 1 ;

     MinUpTime = 1 ;

     MinDownTime = 1 ;

     InitUpDownTime = 1 ;

     InertiaCommitment = 1 ;
    } // group UnitBlock_0
  } // group Block_0
}
